name: 'Admin Order Management'
description: |-

  APIs for managing orders
endpoints:
  -
    httpMethods:
      - GET
    uri: api/orders
    metadata:
      groupName: 'Admin Order Management'
      groupDescription: |-

        APIs for managing orders
      subgroup: ''
      subgroupDescription: ''
      title: 'List all orders'
      description: 'Get a paginated list of all orders.'
      authenticated: false
      custom: []
    headers:
      Content-Type: application/json
      Accept: application/json
    urlParameters: []
    cleanUrlParameters: []
    queryParameters:
      sort_by:
        name: sort_by
        description: 'Field to sort by (e.g., created_at, status).'
        required: false
        example: created_at
        type: string
        enumValues: []
        exampleWasSpecified: true
        nullable: false
        custom: []
      sort_order:
        name: sort_order
        description: 'Sort direction (asc or desc).'
        required: false
        example: desc
        type: string
        enumValues: []
        exampleWasSpecified: true
        nullable: false
        custom: []
      per_page:
        name: per_page
        description: 'Number of items per page.'
        required: false
        example: 15
        type: integer
        enumValues: []
        exampleWasSpecified: true
        nullable: false
        custom: []
    cleanQueryParameters:
      sort_by: created_at
      sort_order: desc
      per_page: 15
    bodyParameters: []
    cleanBodyParameters: []
    fileParameters: []
    responses:
      -
        status: 200
        content: |-
          {
           "data": [
             {
               "id": 1,
               "status": "pending",
               "total": 199.99,
               "created_at": "2024-03-20T12:00:00Z"
             }
           ],
           "message": "تم جلب الطلبات بنجاح",
           "success": true,
           "status": 200,
           "pagination": {
             "total": 50,
             "per_page": 15,
             "current_page": 1,
             "last_page": 4
           }
          }
        headers: []
        description: success
        custom: []
    responseFields: []
    auth: []
    controller: null
    method: null
    route: null
    custom: []
  -
    httpMethods:
      - POST
    uri: api/orders
    metadata:
      groupName: 'Admin Order Management'
      groupDescription: |-

        APIs for managing orders
      subgroup: ''
      subgroupDescription: ''
      title: 'Store a new order'
      description: ''
      authenticated: false
      custom: []
    headers:
      Content-Type: application/json
      Accept: application/json
    urlParameters: []
    cleanUrlParameters: []
    queryParameters: []
    cleanQueryParameters: []
    bodyParameters:
      service_id:
        name: service_id
        description: 'The ID of the service.'
        required: true
        example: 1
        type: integer
        enumValues: []
        exampleWasSpecified: true
        nullable: false
        custom: []
      client_id:
        name: client_id
        description: 'The ID of the client.'
        required: true
        example: 1
        type: integer
        enumValues: []
        exampleWasSpecified: true
        nullable: false
        custom: []
      status:
        name: status
        description: 'The status of the order (pending, in_progress, completed, cancelled).'
        required: true
        example: pending
        type: string
        enumValues: []
        exampleWasSpecified: true
        nullable: false
        custom: []
      total:
        name: total
        description: 'The total amount of the order.'
        required: true
        example: '199.99'
        type: numeric
        enumValues: []
        exampleWasSpecified: true
        nullable: false
        custom: []
    cleanBodyParameters:
      service_id: 1
      client_id: 1
      status: pending
      total: '199.99'
    fileParameters: []
    responses:
      -
        status: 201
        content: |-
          {
           "data": {
             "id": 1,
             "status": "pending",
             "total": 199.99,
             "created_at": "2024-03-20T12:00:00Z"
           },
           "message": "تم إنشاء الطلب بنجاح",
           "success": true,
           "status": 201
          }
        headers: []
        description: success
        custom: []
    responseFields: []
    auth: []
    controller: null
    method: null
    route: null
    custom: []
  -
    httpMethods:
      - GET
    uri: 'api/orders/{id}'
    metadata:
      groupName: 'Admin Order Management'
      groupDescription: |-

        APIs for managing orders
      subgroup: ''
      subgroupDescription: ''
      title: 'Display the specified order'
      description: ''
      authenticated: false
      custom: []
    headers:
      Content-Type: application/json
      Accept: application/json
    urlParameters:
      id:
        name: id
        description: 'The ID of the order.'
        required: true
        example: 1
        type: integer
        enumValues: []
        exampleWasSpecified: false
        nullable: false
        custom: []
    cleanUrlParameters:
      id: 1
    queryParameters: []
    cleanQueryParameters: []
    bodyParameters: []
    cleanBodyParameters: []
    fileParameters: []
    responses:
      -
        status: 200
        content: '{"success":true,"message":"\u062a\u0645 \u062c\u0644\u0628 \u0627\u0644\u0637\u0644\u0628 \u0628\u0646\u062c\u0627\u062d","data":{"id":1,"buyer_id":31,"seller_id":32,"service_id":11,"delivery_date":"2024-11-12 08:34:12","total_amount":"938.00","rating_given":"no","status":"in_progress","created_at":"2024-11-05T08:34:12.000000Z","updated_at":"2024-11-05T08:34:12.000000Z"},"meta":[]}'
        headers:
          cache-control: 'no-cache, private'
          content-type: application/json
          access-control-allow-origin: '*'
        description: null
        custom: []
    responseFields: []
    auth: []
    controller: null
    method: null
    route: null
    custom: []
  -
    httpMethods:
      - PUT
      - PATCH
    uri: 'api/orders/{id}'
    metadata:
      groupName: 'Admin Order Management'
      groupDescription: |-

        APIs for managing orders
      subgroup: ''
      subgroupDescription: ''
      title: 'Update the specified order'
      description: ''
      authenticated: false
      custom: []
    headers:
      Content-Type: application/json
      Accept: application/json
    urlParameters:
      id:
        name: id
        description: 'The ID of the order.'
        required: true
        example: 1
        type: integer
        enumValues: []
        exampleWasSpecified: false
        nullable: false
        custom: []
    cleanUrlParameters:
      id: 1
    queryParameters: []
    cleanQueryParameters: []
    bodyParameters: []
    cleanBodyParameters: []
    fileParameters: []
    responses: []
    responseFields: []
    auth: []
    controller: null
    method: null
    route: null
    custom: []
  -
    httpMethods:
      - DELETE
    uri: 'api/orders/{id}'
    metadata:
      groupName: 'Admin Order Management'
      groupDescription: |-

        APIs for managing orders
      subgroup: ''
      subgroupDescription: ''
      title: 'Remove the specified order'
      description: ''
      authenticated: false
      custom: []
    headers:
      Content-Type: application/json
      Accept: application/json
    urlParameters:
      id:
        name: id
        description: 'The ID of the order.'
        required: true
        example: 1
        type: integer
        enumValues: []
        exampleWasSpecified: false
        nullable: false
        custom: []
    cleanUrlParameters:
      id: 1
    queryParameters: []
    cleanQueryParameters: []
    bodyParameters: []
    cleanBodyParameters: []
    fileParameters: []
    responses: []
    responseFields: []
    auth: []
    controller: null
    method: null
    route: null
    custom: []
